{
  "project_info": {
    "project_number": "584867469255",
    "firebase_url": "https://planningpoker-af91f.firebaseio.com",
    "project_id": "planningpoker-af91f",
    "storage_bucket": "planningpoker-af91f.appspot.com"
  },
  "client": [
    {
      "client_info": {
        "mobilesdk_app_id": "1:584867469255:android:b6eafa242ecb8a30fe6be2",
        "android_client_info": {
          "package_name": "com.example.planning_poker"
        }
      },
      "oauth_client": [
        {
          "client_id": "584867469255-ogm8anij70m3h99pmnf6qc3rmqhdh5kc.apps.googleusercontent.com",
          "client_type": 1,
          "android_info": {
            "package_name": "com.example.planning_poker",
            "certificate_hash": "efe8e4daaccb88ec6475161c7207a9937de180bd"
          }
        },
        {
          "client_id": "584867469255-42dhm232ia9nj09uvvbjb9vjq5lgavqc.apps.googleusercontent.com",
          "client_type": 3
        }
      ],
      "api_key": [
        {
          "current_key": "AIzaSyDnik2pyKRqyCsCAouYMQdavYnzsPRXLUA"
        }
      ],
      "services": {
        "appinvite_service": {
          "other_platform_oauth_client": [
            {
              "client_id": "584867469255-42dhm232ia9nj09uvvbjb9vjq5lgavqc.apps.googleusercontent.com",
              "client_type": 3
            }
          ]
        }
      }
    }
  ],
  "configuration_version": "1"
}